|p      | PDG Mean Ion | ATLAS Mean Ion | ATLAS Mop Ion | PDG rad | ATLAS rad |
|     92.85 |      2.796 |    2.80638 |    2.80487 |  6.158e-05 | 0.00015078
|     100.3 |      2.608 |     2.6173 |    2.58365 |  6.377e-05 | 0.000156167
|     107.4 |      2.461 |    2.47214 |    2.41488 |  6.596e-05 | 0.000161501
|     114.3 |      2.345 |    2.35624 |    2.28066 |  6.839e-05 | 0.000166854
|     121.0 |       2.25 |    2.26242 |    2.17221 |  7.161e-05 | 0.000172197
|     127.6 |      2.172 |    2.18446 |    2.08212 |  7.486e-05 | 0.000177588
|     140.3 |      2.052 |    2.06553 |    1.94437 |  8.145e-05 | 0.000188274
|     152.7 |      1.965 |    1.97866 |    1.84302 |  8.815e-05 | 0.000199052
|     164.7 |      1.899 |    1.91435 |    1.76707 |  9.496e-05 | 0.000209758
|     176.4 |      1.849 |     1.8655 |    1.70844 |  0.0001019 | 0.000220419
|     199.4 |      1.781 |    1.79751 |    1.62422 |   0.000116 | 0.000241902
|     221.8 |      1.737 |    1.75532 |    1.56868 |  0.0001304 | 0.000263359
|     254.6 |      1.699 |    1.71949 |    1.51598 |  0.0001528 | 0.000295489
|     286.8 |      1.678 |    1.70236 |    1.48435 |  0.0001757 | 0.000327637
|     339.6 |      1.665 |    1.69513 |     1.4563 |  0.0002153 | 0.000381249
|     363.3 |      1.664 |    1.69678 |    1.44949 |  0.0002563 | 0.000405578
|     391.7 |      1.665 |    1.70114 |    1.44432 |  0.0002563 | 0.000434893
|     443.2 |      1.672 |    1.71322 |    1.44051 |  0.0002985 | 0.000488406
|     494.5 |      1.681 |    1.72819 |    1.44114 |  0.0003418 | 0.000542048
|     545.5 |      1.692 |    1.74438 |     1.4443 |  0.0003861 | 0.00059562
|     596.4 |      1.703 |    1.76099 |    1.44893 |  0.0004314 | 0.00064927
|     647.1 |      1.714 |    1.77752 |     1.4544 |  0.0004774 | 0.000702849
|     697.7 |      1.726 |    1.79375 |    1.46035 |  0.0005242 | 0.000756432
|     798.7 |      1.747 |    1.82486 |    1.47283 |    0.00062 | 0.000863631
|     899.5 |      1.767 |    1.85389 |    1.48535 |  0.0007182 | 0.000970855
|    1000.0 |      1.786 |    1.88081 |    1.49748 |  0.0008186 | 0.00107792
|    1101.0 |      1.803 |    1.88564 |    1.48883 |  0.0009391 | 0.00118565
|    1301.0 |      1.834 |    1.90481 |    1.48458 |   0.001234 | 0.00139921
|    1502.0 |       1.86 |    1.92229 |     1.4819 |   0.001547 | 0.00161406
|    1803.0 |      1.894 |    1.94539 |    1.47943 |   0.002045 | 0.00193605
|    2103.0 |      1.922 |    1.96532 |    1.47795 |   0.002575 | 0.00225717
|    2604.0 |       1.96 |    1.99333 |    1.47652 |   0.003524 | 0.00279367
|    3104.0 |      1.991 |    2.01643 |    1.47573 |   0.004531 | 0.00332928
|    3604.0 |      2.017 |    2.03598 |    1.47524 |   0.005588 | 0.00386499
|    4104.0 |      2.038 |    2.05286 |    1.47492 |   0.006687 | 0.00440077
|    4604.0 |      2.057 |    2.06766 |     1.4747 |   0.007823 | 0.00493659
|    5105.0 |      2.074 |    2.08083 |    1.47454 |   0.008992 | 0.00547351
|    5605.0 |      2.089 |    2.09262 |    1.47442 |    0.01019 | 0.00600939
|    6105.0 |      2.102 |     2.1033 |    1.47433 |    0.01141 | 0.00654528
|    7105.0 |      2.126 |    2.12198 |     1.4742 |    0.01392 |  0.0076171
|    8105.0 |      2.145 |    2.13789 |    1.47412 |    0.01652 |  0.0095332
|    9105.0 |      2.162 |     2.1517 |    1.47406 |     0.0192 |  0.0137405
| 1.011e+04 |      2.177 |    2.16392 |    1.47402 |    0.02194 |   0.017971
| 1.211e+04 |      2.203 |    2.18453 |    1.47397 |    0.02764 |  0.0263961
| 1.411e+04 |      2.224 |    2.20151 |    1.47393 |    0.03356 |  0.0348296
| 1.711e+04 |      2.249 |    2.22231 |    1.47391 |    0.04275 |  0.0474953
| 2.011e+04 |       2.27 |    2.23924 |    1.47389 |    0.05227 |  0.0601795
| 2.511e+04 |      2.297 |    2.26177 |    1.47387 |    0.06896 |  0.0813605
| 3.011e+04 |      2.319 |    2.27961 |    1.47386 |    0.08631 |   0.102592
| 3.511e+04 |      2.336 |    2.29432 |    1.47386 |     0.1042 |   0.123874
| 4.011e+04 |      2.352 |     2.3068 |    1.47385 |     0.1226 |   0.145205
| 4.511e+04 |      2.365 |    2.31762 |    1.47385 |     0.1414 |   0.166587
| 5.011e+04 |      2.377 |    2.32717 |    1.47385 |     0.1605 |   0.188017
| 5.511e+04 |      2.387 |     2.3357 |    1.47385 |     0.1798 |   0.209496
| 6.011e+04 |      2.396 |    2.34341 |    1.47385 |     0.1994 |   0.231023
| 7.011e+04 |      2.413 |    2.35688 |    1.47385 |     0.2393 |   0.274222
| 8.011e+04 |      2.427 |    2.36838 |    1.47385 |     0.2801 |   0.317611
| 9.011e+04 |       2.44 |    2.37841 |    1.47385 |     0.3217 |   0.361187
| 1.001e+05 |      2.451 |    2.38729 |    1.47385 |      0.364 |   0.404903
| 1.201e+05 |       2.47 |    2.40249 |    1.47384 |     0.4491 |   0.492965
| 1.401e+05 |      2.485 |     2.4152 |    1.47384 |     0.5361 |   0.581731
| 1.701e+05 |      2.505 |    2.43103 |    1.47384 |     0.6696 |   0.716153
| 2.001e+05 |      2.522 |    2.44415 |    1.47384 |      0.806 |   0.852038
| 2.501e+05 |      2.545 |    2.46202 |    1.47384 |      1.034 |    1.08156
| 3.001e+05 |      2.563 |    2.47651 |    1.47384 |      1.267 |    1.31461
| 3.501e+05 |      2.579 |    2.48868 |    1.47384 |      1.505 |    1.55083
| 4.001e+05 |      2.593 |    2.49919 |    1.47384 |      1.745 |    1.78989
| 4.501e+05 |      2.605 |    2.50843 |    1.47384 |      1.989 |    2.03144
| 5.001e+05 |      2.616 |    2.51667 |    1.47384 |      2.235 |    2.27515
| 5.501e+05 |      2.625 |    2.52412 |    1.47384 |      2.478 |    2.52068
| 5.816e+05 |      2.631 |    2.52846 |    1.47384 |      2.632 |    2.67615
| 6.001e+05 |      2.634 |     2.5309 |    1.47384 |      2.723 |    2.76769
| 7.001e+05 |       2.65 |    2.54289 |    1.47384 |      3.216 |    3.26477
| 8.001e+05 |      2.664 |    2.55326 |    1.47384 |      3.715 |    3.76367
| 9.001e+05 |      2.676 |    2.56238 |    1.47384 |      4.218 |    4.26168
|     1e+06 |      2.687 |    2.57053 |    1.47384 |      4.726 |    5.17572
|   1.2e+06 |      2.706 |    2.58462 |    1.47384 |      5.735 |    6.23823
|   1.4e+06 |      2.723 |    2.59652 |    1.47384 |      6.754 |    7.30074
|   1.7e+06 |      2.743 |    2.61148 |    1.47384 |      8.298 |    8.89451
|     2e+06 |       2.76 |      2.624 |    1.47384 |      9.857 |    10.4883
|   2.5e+06 |      2.784 |    2.64116 |    1.47384 |      12.44 |    13.1446
|     3e+06 |      2.804 |    2.65517 |    1.47384 |      15.04 |    15.8008
|   3.5e+06 |      2.821 |      2.667 |    1.47384 |      17.66 |    18.4571
|     4e+06 |      2.836 |    2.67725 |    1.47384 |       20.3 |    21.1134
|   4.5e+06 |      2.849 |    2.68629 |    1.47384 |      22.95 |    23.7697
|     5e+06 |       2.86 |    2.69437 |    1.47384 |      25.61 |     26.426
|   5.5e+06 |      2.871 |    2.70168 |    1.47384 |      28.25 |    29.0822
|     6e+06 |      2.881 |    2.70836 |    1.47384 |       30.9 |    31.7385
|     7e+06 |      2.898 |    2.72017 |    1.47384 |      36.21 |    37.0511
|     8e+06 |      2.913 |    2.73041 |    1.47384 |      41.55 |    42.3636
|     9e+06 |      2.926 |    2.73943 |    1.47384 |       46.9 |    47.6762
|     1e+07 |      2.938 |    2.74751 |    1.47384 |      52.27 |    52.9888
